module github.com/NVIDIA/nvidia-container-toolkit

go 1.20

require (
	github.com/BurntSushi/toml v1.2.1
	github.com/NVIDIA/go-nvml v0.12.0-1
	github.com/container-orchestrated-devices/container-device-interface v0.5.4-0.20230111111500-5b3b5d81179a
	github.com/fsnotify/fsnotify v1.5.4
	github.com/opencontainers/runtime-spec v1.1.0-rc.2
	github.com/pelletier/go-toml v1.9.4
	github.com/sirupsen/logrus v1.9.0
	github.com/stretchr/testify v1.8.1
	github.com/urfave/cli/v2 v2.3.0
	gitlab.com/nvidia/cloud-native/go-nvlib v0.0.0-20230613182322-7663cf900f0a
	golang.org/x/mod v0.5.0
	golang.org/x/sys v0.7.0
)

require (
	github.com/cpuguy83/go-md2man/v2 v2.0.2 // indirect
	github.com/davecgh/go-spew v1.1.1 // indirect
	github.com/hashicorp/errwrap v1.1.0 // indirect
	github.com/kr/pretty v0.3.1 // indirect
	github.com/opencontainers/runc v1.1.6 // indirect
	github.com/opencontainers/runtime-tools v0.9.1-0.20221107090550-2e043c6bd626 // indirect
	github.com/opencontainers/selinux v1.11.0 // indirect
	github.com/pmezard/go-difflib v1.0.0 // indirect
	github.com/russross/blackfriday/v2 v2.1.0 // indirect
	github.com/syndtr/gocapability v0.0.0-20200815063812-42c35b437635 // indirect
	github.com/xeipuuv/gojsonpointer v0.0.0-20190905194746-02993c407bfb // indirect
	gopkg.in/check.v1 v1.0.0-20201130134442-10cb98267c6c // indirect
	gopkg.in/yaml.v2 v2.4.0 // indirect
	gopkg.in/yaml.v3 v3.0.1 // indirect
	sigs.k8s.io/yaml v1.3.0 // indirect
)
